…
<img src="PUBH7462_HW2-AnthonyJohnson_files/figure-gfm/unnamed-chunk-5-1.png" width="90%" style="display: block; margin: auto;" />

``` r
(mean_locations <- tidy_brfss %>%
  distinct(year, state, county) %>%
  group_by(year, state) %>%
  summarize(n = n()) %>%
  group_by(state) %>%
  summarise(Avg = mean(n)) %>%
  arrange(-Avg))
```

    ## # A tibble: 51 × 2
    ##    state   Avg
    ##    <fct> <dbl>
    ##  1 NJ    16.2 
    ##  2 FL    15.2 
    ##  3 NC    12.8 
    ##  4 WA    10.8 
    ##  5 MD    10   
    ##  6 MA     8.78
    ##  7 TX     7.89
    ##  8 NY     7.22
    ##  9 SC     7   
    ## 10 CO     6.56
    ## # … with 41 more rows
…
